{
  "type": "service_account",
  "project_id": "bobile-fire-store-data",
  "private_key_id": "991b66bbf05c068ff5f5e58366afa566257a5cbd",
  "private_key": "-----BEGIN PRIVATE KEY-----\nMIIEvgIBADANBgkqhkiG9w0BAQEFAASCBKgwggSkAgEAAoIBAQDRlNyVF5F5nEZA\nMdRpu6hHgik594CTcNpV0DiIKZ3srIkiQ8kRYoeyq6C4KRx98JJH71Ehx/8PGfKh\n3NjtPEAdYffYS+WJDPJh1x7a4se26PhpwDIV0mQW9ED2R3PEMRLQ7tr95f+lsRL1\nDDKoRjJXxN29WnmfQ2WzOZCbYAT5okBClblmSefqurkNwD2pshlW07tfKIcimN1W\nRM06er1VDj5coVsqybLjyej0qB/007QhYXUM3XdkY6cAf1S7tJv9yHinDbJs9MKw\nfVQPr8uiT96Q0M3vQKNHqAnVirhTrSNa0i2I4SCS/VxCj3Qde5GTuYQ5lgBlqIw7\nSBfYlzoJAgMBAAECggEAYiZ490nGU1GghMfRVoMP2A1ZCVCj4mjjl3SgRQRYdVKI\nFofwTjf6nO5LonN+aGyV1SJ6uHtVM9lPDAbFgLTKwffzflRs9rYdfTylspSqOzr3\nu27LBfU18poJIk1sJeFlknuKC4X/J7W5zxEbWDsnsHr97YPFmZSSuFCpLFrXeaBt\nESP2rj77pK3PKtO9wApBZHzkSv8uOeSBtVVzpiMKeQQI8YK0bQRzUWV5UQsOO6sP\npVxH69ydUm/NSz94EqnwKhLYakuq+rRcPqXF5g9IOLWIo2P572Xzv/1wxm3ZXzb3\nKoAnTFoqvDM7kP/6LUr7N7HhAlA3GD41HHLqzP9PkQKBgQD7X02NrJmgMcizqyUa\nejf3kWC83GBtyaJinECvrhrSIc9mCLpTBj4BqBvew1XicsxjvCMx9kbJShCj1EpK\nFdKnqfJJEQz0xjZ+i7q2JmNJVRNu41I9bmTQY2ZU1zL6aX3xqGUIIfcDZSJdKzmn\nLuUnbnAWtH7CDctPnfn1bJ/yAwKBgQDVcJolonymlBD73wdMQg+F1vI0IJi2WSxu\nkR5/eW9cb63/JnbHr7LTP61IfsFhhJ7B/tm59km7warcgxR794HGyS9pw0bcXAwc\n0OZ6cnKGTjBhdQEjm/v+WS/Ix4EUyPwPntBr7cIvaMrzT9LjV4HCGoBOKAdzY0OE\nypzpmp/MAwKBgQCXyQtWUfON1KHhQ6Wq4EPtPJ6SS+v6PzfLnZg9vL67RekrLnf7\n7BgC/hSeJYs1qqYaTx9dat2BbDSyCF03cQf7b9Y6Io6VOx7quMrsdC+dtz59xcwC\nBiff4TWIY02IAa0n/8vJ5mB2b1oZsiEk/18luTz7qM+ls5ihob2uYYIPKwKBgQDT\nVteLBETgvCPFAaU8QP0VzSutqckMZWe1Y0QLfLZjlMF4ryFVwAcVXSu7aKcaZDK+\nbBYyKEgB/VWtWq1hwkViC7tCwfTcJNhpf/92pvP3QFxvY2dpVv5BbxX9fG23ovrS\njLJa6+UnBGBQY22xZeg5xfvdZ41ZF6S3S9frBwvK+QKBgFzzh6VqzVS4zoCeWeGX\noXgCgq4ouLOHSv3yt4bJVM+Iees/Affj6FxutnggQYim6m70cgS1+rbmf1oFWiu9\nYrfpS4w6yIAsSKXgeMnQ74BF38Pm8yTc0Fduh4AkbmOfiuR9wohWi8B0LY6Q3xSr\nNfdb9arykB9Jb3giDGoKPqcq\n-----END PRIVATE KEY-----\n",
  "client_email": "bobile-fire-store-data@appspot.gserviceaccount.com",
  "client_id": "100229145902304993772",
  "auth_uri": "https://accounts.google.com/o/oauth2/auth",
  "token_uri": "https://oauth2.googleapis.com/token",
  "auth_provider_x509_cert_url": "https://www.googleapis.com/oauth2/v1/certs",
  "client_x509_cert_url": "https://www.googleapis.com/robot/v1/metadata/x509/bobile-fire-store-data%40appspot.gserviceaccount.com"
}
